

================================================================
== Vivado HLS Report for 'dft'
================================================================
* Date:           Sun Nov 12 22:04:23 2017

* Version:        2015.4 (Build 1412921 on Wed Nov 18 09:58:55 AM 2015)
* Project:        hls
* Solution:       solution1
* Product family: zynq
* Target device:  xc7z020clg484-1


================================================================
== Performance Estimates
================================================================
+ Timing (ns): 
    * Summary: 
    +--------+-------+----------+------------+
    |  Clock | Target| Estimated| Uncertainty|
    +--------+-------+----------+------------+
    |ap_clk  |  10.00|      8.41|        1.25|
    +--------+-------+----------+------------+

+ Latency (clock cycles): 
    * Summary: 
    +---------+---------+---------+---------+---------+
    |      Latency      |      Interval     | Pipeline|
    |   min   |   max   |   min   |   max   |   Type  |
    +---------+---------+---------+---------+---------+
    |  1115138|  1115138|  1115139|  1115139|   none  |
    +---------+---------+---------+---------+---------+

    + Detail: 
        * Instance: 
        N/A

        * Loop: 
        +-------------+---------+---------+----------+-----------+-----------+------+----------+
        |             |      Latency      | Iteration|  Initiation Interval  | Trip |          |
        |  Loop Name  |   min   |   max   |  Latency |  achieved |   target  | Count| Pipelined|
        +-------------+---------+---------+----------+-----------+-----------+------+----------+
        |- Loop 1     |  1114624|  1114624|      4354|          -|          -|   256|    no    |
        | + Loop 1.1  |     4352|     4352|        17|          -|          -|   256|    no    |
        |- Loop 2     |      512|      512|         2|          -|          -|   256|    no    |
        +-------------+---------+---------+----------+-----------+-----------+------+----------+



================================================================
== Utilization Estimates
================================================================
* Summary: 
+-----------------+---------+-------+--------+-------+
|       Name      | BRAM_18K| DSP48E|   FF   |  LUT  |
+-----------------+---------+-------+--------+-------+
|DSP              |        -|      -|       -|      -|
|Expression       |        -|      1|       0|     39|
|FIFO             |        -|      -|       -|      -|
|Instance         |        -|     16|     982|   2064|
|Memory           |        4|      -|       0|      0|
|Multiplexer      |        -|      -|       -|    303|
|Register         |        -|      -|     372|      -|
+-----------------+---------+-------+--------+-------+
|Total            |        4|     17|    1354|   2406|
+-----------------+---------+-------+--------+-------+
|Available        |      280|    220|  106400|  53200|
+-----------------+---------+-------+--------+-------+
|Utilization (%)  |        1|      7|       1|      4|
+-----------------+---------+-------+--------+-------+

+ Detail: 
    * Instance: 
    +-----------------------------------------+--------------------------------------+---------+-------+-----+-----+
    |                 Instance                |                Module                | BRAM_18K| DSP48E|  FF | LUT |
    +-----------------------------------------+--------------------------------------+---------+-------+-----+-----+
    |dft_fadd_32ns_32ns_32_5_full_dsp_U1      |dft_fadd_32ns_32ns_32_5_full_dsp      |        0|      2|  205|  390|
    |dft_faddfsub_32ns_32ns_32_5_full_dsp_U0  |dft_faddfsub_32ns_32ns_32_5_full_dsp  |        0|      2|  205|  390|
    |dft_fmul_32ns_32ns_32_4_max_dsp_U2       |dft_fmul_32ns_32ns_32_4_max_dsp       |        0|      3|  143|  321|
    |dft_fmul_32ns_32ns_32_4_max_dsp_U3       |dft_fmul_32ns_32ns_32_4_max_dsp       |        0|      3|  143|  321|
    |dft_fmul_32ns_32ns_32_4_max_dsp_U4       |dft_fmul_32ns_32ns_32_4_max_dsp       |        0|      3|  143|  321|
    |dft_fmul_32ns_32ns_32_4_max_dsp_U5       |dft_fmul_32ns_32ns_32_4_max_dsp       |        0|      3|  143|  321|
    +-----------------------------------------+--------------------------------------+---------+-------+-----+-----+
    |Total                                    |                                      |        0|     16|  982| 2064|
    +-----------------------------------------+--------------------------------------+---------+-------+-----+-----+

    * DSP48: 
    N/A

    * Memory: 
    +--------------------------+----------------------------+---------+---+----+------+-----+------+-------------+
    |          Memory          |           Module           | BRAM_18K| FF| LUT| Words| Bits| Banks| W*Bits*Banks|
    +--------------------------+----------------------------+---------+---+----+------+-----+------+-------------+
    |cos_coefficients_table_U  |dft_cos_coefficients_table  |        1|  0|   0|   256|   32|     1|         8192|
    |sin_coefficients_table_U  |dft_sin_coefficients_table  |        1|  0|   0|   256|   32|     1|         8192|
    |temp_r_U                  |dft_temp_r                  |        1|  0|   0|   256|   32|     1|         8192|
    |temp_i_U                  |dft_temp_r                  |        1|  0|   0|   256|   32|     1|         8192|
    +--------------------------+----------------------------+---------+---+----+------+-----+------+-------------+
    |Total                     |                            |        4|  0|   0|  1024|  128|     4|        32768|
    +--------------------------+----------------------------+---------+---+----+------+-----+------+-------------+

    * FIFO: 
    N/A

    * Expression: 
    +---------------------+----------+-------+---+----+------------+------------+
    |    Variable Name    | Operation| DSP48E| FF| LUT| Bitwidth P0| Bitwidth P1|
    +---------------------+----------+-------+---+----+------------+------------+
    |tmp_6_fu_284_p2      |     *    |      1|  0|   0|           8|           8|
    |ii_1_fu_306_p2       |     +    |      0|  0|   9|           9|           1|
    |ii_2_fu_256_p2       |     +    |      0|  0|   9|           1|           9|
    |jj_1_fu_278_p2       |     +    |      0|  0|   9|           1|           9|
    |exitcond1_fu_272_p2  |   icmp   |      0|  0|   4|           9|          10|
    |exitcond2_fu_250_p2  |   icmp   |      0|  0|   4|           9|          10|
    |exitcond_fu_300_p2   |   icmp   |      0|  0|   4|           9|          10|
    +---------------------+----------+-------+---+----+------------+------------+
    |Total                |          |      1|  0|  39|          46|          57|
    +---------------------+----------+-------+---+----+------------+------------+

    * Multiplexer: 
    +----------------------+----+-----------+-----+-----------+
    |         Name         | LUT| Input Size| Bits| Total Bits|
    +----------------------+----+-----------+-----+-----------+
    |ap_NS_fsm             |  18|         22|    1|         22|
    |grp_fu_199_opcode     |   2|          3|    2|          6|
    |grp_fu_199_p0         |  32|          3|   32|         96|
    |grp_fu_199_p1         |  32|          3|   32|         96|
    |grp_fu_203_p0         |  32|          3|   32|         96|
    |grp_fu_203_p1         |  32|          3|   32|         96|
    |ii1_reg_188           |   9|          2|    9|         18|
    |ii_reg_140            |   9|          2|    9|         18|
    |imag_sample_address0  |   8|          3|    8|         24|
    |jj_reg_176            |   9|          2|    9|         18|
    |real_sample_address0  |   8|          3|    8|         24|
    |storemerge_reg_151    |  32|          2|   32|         64|
    |temp_i_address0       |   8|          3|    8|         24|
    |temp_r_address0       |   8|          4|    8|         32|
    |temp_r_d0             |  32|          3|   32|         96|
    |tmp_2_reg_164         |  32|          2|   32|         64|
    +----------------------+----+-----------+-----+-----------+
    |Total                 | 303|         63|  286|        794|
    +----------------------+----+-----------+-----+-----------+

    * Register: 
    +---------------------+----+----+-----+-----------+
    |         Name        | FF | LUT| Bits| Const Bits|
    +---------------------+----+----+-----+-----------+
    |ap_CS_fsm            |  21|   0|   21|          0|
    |ii1_reg_188          |   9|   0|    9|          0|
    |ii_1_reg_421         |   9|   0|    9|          0|
    |ii_2_reg_326         |   9|   0|    9|          0|
    |ii_reg_140           |   9|   0|    9|          0|
    |jj_1_reg_344         |   9|   0|    9|          0|
    |jj_reg_176           |   9|   0|    9|          0|
    |reg_233              |  32|   0|   32|          0|
    |reg_240              |  32|   0|   32|          0|
    |storemerge_reg_151   |  32|   0|   32|          0|
    |temp_i_addr_reg_336  |   8|   0|    8|          0|
    |temp_r_addr_reg_331  |   8|   0|    8|          0|
    |tmp_10_reg_408       |  32|   0|   32|          0|
    |tmp_11_reg_413       |  32|   0|   32|          0|
    |tmp_1_reg_318        |   8|   0|    8|          0|
    |tmp_2_reg_164        |  32|   0|   32|          0|
    |tmp_3_reg_426        |   9|   0|   64|         55|
    |tmp_4_reg_403        |  32|   0|   32|          0|
    |tmp_6_reg_349        |   8|   0|    8|          0|
    |tmp_s_reg_398        |  32|   0|   32|          0|
    +---------------------+----+----+-----+-----------+
    |Total                | 372|   0|  427|         55|
    +---------------------+----+----+-----+-----------+



================================================================
== Interface
================================================================
* Summary: 
+----------------------+-----+-----+------------+--------------+--------------+
|       RTL Ports      | Dir | Bits|  Protocol  | Source Object|    C Type    |
+----------------------+-----+-----+------------+--------------+--------------+
|ap_clk                |  in |    1| ap_ctrl_hs |      dft     | return value |
|ap_rst                |  in |    1| ap_ctrl_hs |      dft     | return value |
|ap_start              |  in |    1| ap_ctrl_hs |      dft     | return value |
|ap_done               | out |    1| ap_ctrl_hs |      dft     | return value |
|ap_idle               | out |    1| ap_ctrl_hs |      dft     | return value |
|ap_ready              | out |    1| ap_ctrl_hs |      dft     | return value |
|real_sample_address0  | out |    8|  ap_memory |  real_sample |     array    |
|real_sample_ce0       | out |    1|  ap_memory |  real_sample |     array    |
|real_sample_we0       | out |    1|  ap_memory |  real_sample |     array    |
|real_sample_d0        | out |   32|  ap_memory |  real_sample |     array    |
|real_sample_q0        |  in |   32|  ap_memory |  real_sample |     array    |
|imag_sample_address0  | out |    8|  ap_memory |  imag_sample |     array    |
|imag_sample_ce0       | out |    1|  ap_memory |  imag_sample |     array    |
|imag_sample_we0       | out |    1|  ap_memory |  imag_sample |     array    |
|imag_sample_d0        | out |   32|  ap_memory |  imag_sample |     array    |
|imag_sample_q0        |  in |   32|  ap_memory |  imag_sample |     array    |
+----------------------+-----+-----+------------+--------------+--------------+

