

================================================================
== Vivado HLS Report for 'fir'
================================================================
* Date:           Fri Oct 13 12:15:18 2017

* Version:        2015.4 (Build 1412921 on Wed Nov 18 09:58:55 AM 2015)
* Project:        fir128
* Solution:       baseline
* Product family: kintex7
* Target device:  xc7k160tfbg484-2


================================================================
== Performance Estimates
================================================================
+ Timing (ns): 
    * Summary: 
    +--------+-------+----------+------------+
    |  Clock | Target| Estimated| Uncertainty|
    +--------+-------+----------+------------+
    |ap_clk  |  10.00|      8.15|        1.25|
    +--------+-------+----------+------------+

+ Latency (clock cycles): 
    * Summary: 
    +-----+-----+-----+-----+---------+
    |  Latency  |  Interval | Pipeline|
    | min | max | min | max |   Type  |
    +-----+-----+-----+-----+---------+
    |  257|  385|  258|  386|   none  |
    +-----+-----+-----+-----+---------+

    + Detail: 
        * Instance: 
        N/A

        * Loop: 
        +--------------------+-----+-----+----------+-----------+-----------+------+----------+
        |                    |  Latency  | Iteration|  Initiation Interval  | Trip |          |
        |      Loop Name     | min | max |  Latency |  achieved |   target  | Count| Pipelined|
        +--------------------+-----+-----+----------+-----------+-----------+------+----------+
        |- shift_accum_loop  |  256|  384|   2 ~ 3  |          -|          -|   128|    no    |
        +--------------------+-----+-----+----------+-----------+-----------+------+----------+



================================================================
== Utilization Estimates
================================================================
* Summary: 
+-----------------+---------+-------+--------+--------+
|       Name      | BRAM_18K| DSP48E|   FF   |   LUT  |
+-----------------+---------+-------+--------+--------+
|DSP              |        -|      -|       -|       -|
|Expression       |        -|      2|       0|      82|
|FIFO             |        -|      -|       -|       -|
|Instance         |        -|      -|       -|       -|
|Memory           |        -|      -|       -|       -|
|Multiplexer      |        -|      -|       -|    1363|
|Register         |        -|      -|    4243|       -|
+-----------------+---------+-------+--------+--------+
|Total            |        0|      2|    4243|    1445|
+-----------------+---------+-------+--------+--------+
|Available        |      650|    600|  202800|  101400|
+-----------------+---------+-------+--------+--------+
|Utilization (%)  |        0|   ~0  |       2|       1|
+-----------------+---------+-------+--------+--------+

+ Detail: 
    * Instance: 
    N/A

    * DSP48: 
    N/A

    * Memory: 
    N/A

    * FIFO: 
    N/A

    * Expression: 
    +------------------+----------+-------+---+----+------------+------------+
    |   Variable Name  | Operation| DSP48E| FF| LUT| Bitwidth P0| Bitwidth P1|
    +------------------+----------+-------+---+----+------------+------------+
    |tmp_6_fu_2561_p2  |     *    |      2|  0|   5|          32|           5|
    |acc_1_fu_2567_p2  |     +    |      0|  0|  32|          32|          32|
    |i_1_fu_2573_p2    |     +    |      0|  0|   8|           8|           2|
    |tmp_2_fu_1264_p2  |     +    |      0|  0|  32|          32|          32|
    |ap_sig_bdd_182    |    and   |      0|  0|   1|           1|           1|
    |ap_sig_bdd_2161   |    and   |      0|  0|   1|           1|           1|
    |tmp_1_fu_1278_p2  |   icmp   |      0|  0|   3|           8|           1|
    +------------------+----------+-------+---+----+------------+------------+
    |Total             |          |      2|  0|  82|         114|          74|
    +------------------+----------+-------+---+----+------------+------------+

    * Multiplexer: 
    +----------------------------+------+-----------+-----+-----------+
    |            Name            |  LUT | Input Size| Bits| Total Bits|
    +----------------------------+------+-----------+-----+-----------+
    |acc_reg_573                 |    32|          2|   32|         64|
    |ap_NS_fsm                   |     1|          5|    1|          5|
    |c_load_phi_phi_fu_860_p254  |    10|          9|    5|         45|
    |i_reg_586                   |     8|          2|    8|         16|
    |p_pn_phi_fu_1246_p4         |    32|          2|   32|         64|
    |p_pn_reg_1243               |    32|          2|   32|         64|
    |shift_reg_load_phi_reg_598  |  1248|        127|   32|       4064|
    +----------------------------+------+-----------+-----+-----------+
    |Total                       |  1363|        149|  142|       4322|
    +----------------------------+------+-----------+-----+-----------+

    * Register: 
    +----------------------------+----+----+-----+-----------+
    |            Name            | FF | LUT| Bits| Const Bits|
    +----------------------------+----+----+-----+-----------+
    |acc_reg_573                 |  32|   0|   32|          0|
    |ap_CS_fsm                   |   4|   0|    4|          0|
    |i_reg_586                   |   8|   0|    8|          0|
    |p_pn_reg_1243               |  32|   0|   32|          0|
    |shift_reg                   |  32|   0|   32|          0|
    |shift_reg_0                 |  32|   0|   32|          0|
    |shift_reg_1                 |  32|   0|   32|          0|
    |shift_reg_10                |  32|   0|   32|          0|
    |shift_reg_100               |  32|   0|   32|          0|
    |shift_reg_101               |  32|   0|   32|          0|
    |shift_reg_102               |  32|   0|   32|          0|
    |shift_reg_103               |  32|   0|   32|          0|
    |shift_reg_104               |  32|   0|   32|          0|
    |shift_reg_105               |  32|   0|   32|          0|
    |shift_reg_106               |  32|   0|   32|          0|
    |shift_reg_107               |  32|   0|   32|          0|
    |shift_reg_108               |  32|   0|   32|          0|
    |shift_reg_109               |  32|   0|   32|          0|
    |shift_reg_11                |  32|   0|   32|          0|
    |shift_reg_110               |  32|   0|   32|          0|
    |shift_reg_111               |  32|   0|   32|          0|
    |shift_reg_112               |  32|   0|   32|          0|
    |shift_reg_113               |  32|   0|   32|          0|
    |shift_reg_114               |  32|   0|   32|          0|
    |shift_reg_115               |  32|   0|   32|          0|
    |shift_reg_116               |  32|   0|   32|          0|
    |shift_reg_117               |  32|   0|   32|          0|
    |shift_reg_118               |  32|   0|   32|          0|
    |shift_reg_119               |  32|   0|   32|          0|
    |shift_reg_12                |  32|   0|   32|          0|
    |shift_reg_120               |  32|   0|   32|          0|
    |shift_reg_121               |  32|   0|   32|          0|
    |shift_reg_122               |  32|   0|   32|          0|
    |shift_reg_123               |  32|   0|   32|          0|
    |shift_reg_124               |  32|   0|   32|          0|
    |shift_reg_125               |  32|   0|   32|          0|
    |shift_reg_13                |  32|   0|   32|          0|
    |shift_reg_14                |  32|   0|   32|          0|
    |shift_reg_15                |  32|   0|   32|          0|
    |shift_reg_16                |  32|   0|   32|          0|
    |shift_reg_17                |  32|   0|   32|          0|
    |shift_reg_18                |  32|   0|   32|          0|
    |shift_reg_19                |  32|   0|   32|          0|
    |shift_reg_2                 |  32|   0|   32|          0|
    |shift_reg_20                |  32|   0|   32|          0|
    |shift_reg_21                |  32|   0|   32|          0|
    |shift_reg_22                |  32|   0|   32|          0|
    |shift_reg_23                |  32|   0|   32|          0|
    |shift_reg_24                |  32|   0|   32|          0|
    |shift_reg_25                |  32|   0|   32|          0|
    |shift_reg_26                |  32|   0|   32|          0|
    |shift_reg_27                |  32|   0|   32|          0|
    |shift_reg_28                |  32|   0|   32|          0|
    |shift_reg_29                |  32|   0|   32|          0|
    |shift_reg_3                 |  32|   0|   32|          0|
    |shift_reg_30                |  32|   0|   32|          0|
    |shift_reg_31                |  32|   0|   32|          0|
    |shift_reg_32                |  32|   0|   32|          0|
    |shift_reg_33                |  32|   0|   32|          0|
    |shift_reg_34                |  32|   0|   32|          0|
    |shift_reg_35                |  32|   0|   32|          0|
    |shift_reg_36                |  32|   0|   32|          0|
    |shift_reg_37                |  32|   0|   32|          0|
    |shift_reg_38                |  32|   0|   32|          0|
    |shift_reg_39                |  32|   0|   32|          0|
    |shift_reg_4                 |  32|   0|   32|          0|
    |shift_reg_40                |  32|   0|   32|          0|
    |shift_reg_41                |  32|   0|   32|          0|
    |shift_reg_42                |  32|   0|   32|          0|
    |shift_reg_43                |  32|   0|   32|          0|
    |shift_reg_44                |  32|   0|   32|          0|
    |shift_reg_45                |  32|   0|   32|          0|
    |shift_reg_46                |  32|   0|   32|          0|
    |shift_reg_47                |  32|   0|   32|          0|
    |shift_reg_48                |  32|   0|   32|          0|
    |shift_reg_49                |  32|   0|   32|          0|
    |shift_reg_5                 |  32|   0|   32|          0|
    |shift_reg_50                |  32|   0|   32|          0|
    |shift_reg_51                |  32|   0|   32|          0|
    |shift_reg_52                |  32|   0|   32|          0|
    |shift_reg_53                |  32|   0|   32|          0|
    |shift_reg_54                |  32|   0|   32|          0|
    |shift_reg_55                |  32|   0|   32|          0|
    |shift_reg_56                |  32|   0|   32|          0|
    |shift_reg_57                |  32|   0|   32|          0|
    |shift_reg_58                |  32|   0|   32|          0|
    |shift_reg_59                |  32|   0|   32|          0|
    |shift_reg_6                 |  32|   0|   32|          0|
    |shift_reg_60                |  32|   0|   32|          0|
    |shift_reg_61                |  32|   0|   32|          0|
    |shift_reg_62                |  32|   0|   32|          0|
    |shift_reg_63                |  32|   0|   32|          0|
    |shift_reg_64                |  32|   0|   32|          0|
    |shift_reg_65                |  32|   0|   32|          0|
    |shift_reg_66                |  32|   0|   32|          0|
    |shift_reg_67                |  32|   0|   32|          0|
    |shift_reg_68                |  32|   0|   32|          0|
    |shift_reg_69                |  32|   0|   32|          0|
    |shift_reg_7                 |  32|   0|   32|          0|
    |shift_reg_70                |  32|   0|   32|          0|
    |shift_reg_71                |  32|   0|   32|          0|
    |shift_reg_72                |  32|   0|   32|          0|
    |shift_reg_73                |  32|   0|   32|          0|
    |shift_reg_74                |  32|   0|   32|          0|
    |shift_reg_75                |  32|   0|   32|          0|
    |shift_reg_76                |  32|   0|   32|          0|
    |shift_reg_77                |  32|   0|   32|          0|
    |shift_reg_78                |  32|   0|   32|          0|
    |shift_reg_79                |  32|   0|   32|          0|
    |shift_reg_8                 |  32|   0|   32|          0|
    |shift_reg_80                |  32|   0|   32|          0|
    |shift_reg_81                |  32|   0|   32|          0|
    |shift_reg_82                |  32|   0|   32|          0|
    |shift_reg_83                |  32|   0|   32|          0|
    |shift_reg_84                |  32|   0|   32|          0|
    |shift_reg_85                |  32|   0|   32|          0|
    |shift_reg_86                |  32|   0|   32|          0|
    |shift_reg_87                |  32|   0|   32|          0|
    |shift_reg_88                |  32|   0|   32|          0|
    |shift_reg_89                |  32|   0|   32|          0|
    |shift_reg_9                 |  32|   0|   32|          0|
    |shift_reg_90                |  32|   0|   32|          0|
    |shift_reg_91                |  32|   0|   32|          0|
    |shift_reg_92                |  32|   0|   32|          0|
    |shift_reg_93                |  32|   0|   32|          0|
    |shift_reg_94                |  32|   0|   32|          0|
    |shift_reg_95                |  32|   0|   32|          0|
    |shift_reg_96                |  32|   0|   32|          0|
    |shift_reg_97                |  32|   0|   32|          0|
    |shift_reg_98                |  32|   0|   32|          0|
    |shift_reg_99                |  32|   0|   32|          0|
    |shift_reg_load_phi_reg_598  |  32|   0|   32|          0|
    |tmp_1_reg_2592              |   1|   0|    1|          0|
    |tmp_2_reg_2584              |  31|   0|   32|          1|
    |tmp_5_reg_2596              |   7|   0|    7|          0|
    |tmp_6_reg_3235              |  32|   0|   32|          0|
    +----------------------------+----+----+-----+-----------+
    |Total                       |4243|   0| 4244|          1|
    +----------------------------+----+----+-----+-----------+



================================================================
== Interface
================================================================
* Summary: 
+----------+-----+-----+------------+--------------+--------------+
| RTL Ports| Dir | Bits|  Protocol  | Source Object|    C Type    |
+----------+-----+-----+------------+--------------+--------------+
|ap_clk    |  in |    1| ap_ctrl_hs |      fir     | return value |
|ap_rst    |  in |    1| ap_ctrl_hs |      fir     | return value |
|ap_start  |  in |    1| ap_ctrl_hs |      fir     | return value |
|ap_done   | out |    1| ap_ctrl_hs |      fir     | return value |
|ap_idle   | out |    1| ap_ctrl_hs |      fir     | return value |
|ap_ready  | out |    1| ap_ctrl_hs |      fir     | return value |
|y         | out |   32|   ap_vld   |       y      |    pointer   |
|y_ap_vld  | out |    1|   ap_vld   |       y      |    pointer   |
|x         |  in |   32|   ap_none  |       x      |    scalar    |
+----------+-----+-----+------------+--------------+--------------+

